{
  "version": "1.0.0-*",

  "dependencies": {
    "ContentMonitor.Contracts": "1.0.0-*",
    "NETStandard.Library": "1.5.0-rc2-24027"
  },

  "frameworks": {
    "netstandard1.5": {
      "imports": "dnxcore50"
    }
  }
}
