{
  "version": "1.0.0-*",

  "testRunner": "xunit",

  "dependencies": {
    "Microsoft.NETCore.App": {
      "version": "1.0.0-rc2-3002702",
      "type": "platform"
    },
    "xunit": "2.1.0",
    "dotnet-test-xunit": "1.0.0-rc2-build10025",
    "ContentMonitor.Business": "1.0.0-*",
    "ContentMonitor.Contracts": "1.0.0-*",
    "ContentMonitor.CommonUtils": "1.0.0-*",
    "Newtonsoft.Json": "9.0.1" 
  },

  "frameworks": {
    "netcoreapp1.0": {
      "imports": [
        "dnxcore50",
        "portable-net45+win8"
      ]
    }
  }
}